{
  "Comment.nvim": { "branch": "master", "commit": "e30b7f2008e52442154b66f7c519bfd2f1e32acb" },
  "LuaSnip": { "branch": "master", "commit": "e808bee352d1a6fcf902ca1a71cee76e60e24071" },
  "cmp-buffer": { "branch": "main", "commit": "3022dbc9166796b644a841a02de8dd1cc1d311fa" },
  "cmp-cmdline": { "branch": "main", "commit": "d250c63aa13ead745e3a40f61fdd3470efde3923" },
  "cmp-nvim-lsp": { "branch": "main", "commit": "39e2eda76828d88b773cc27a3f61d2ad782c922d" },
  "cmp-nvim-lsp-signature-help": { "branch": "main", "commit": "031e6ba70b0ad5eee49fd2120ff7a2e325b17fa7" },
  "cmp-path": { "branch": "main", "commit": "91ff86cd9c29299a64f968ebb45846c485725f23" },
  "codeium.vim": { "branch": "main", "commit": "fa65fa942aaf1aef73b6dbe3cc0faa713b738fbe" },
  "comment-box.nvim": { "branch": "main", "commit": "06bb771690bc9df0763d14769b779062d8f12bc5" },
  "gitsigns.nvim": { "branch": "main", "commit": "1ef74b546732f185d0f806860fa5404df7614f28" },
  "gruvbox": { "branch": "master", "commit": "f1ecde848f0cdba877acb0c740320568252cc482" },
  "lazy.nvim": { "branch": "main", "commit": "460e1cd8f24e364d54543a4b0e83f6f4ec1f65fb" },
  "lualine.nvim": { "branch": "master", "commit": "b431d228b7bbcdaea818bdc3e25b8cdbe861f056" },
  "mini.hipatterns": { "branch": "main", "commit": "427712c754bfdccd8da7073576cd8e2586c0fe93" },
  "nvim-autopairs": { "branch": "master", "commit": "f158dcb865c36f72c92358f87787dab2c272eaf3" },
  "nvim-cmp": { "branch": "main", "commit": "ae644feb7b67bf1ce4260c231d1d4300b19c6f30" },
  "nvim-lspconfig": { "branch": "master", "commit": "b064131428f6bbbbc905f4451ba6779fda334a3a" },
  "nvim-treesitter": { "branch": "master", "commit": "929ca9c76ee20bb27cffbde4ee90583b6c54d616" },
  "nvim-web-devicons": { "branch": "master", "commit": "26220156aafb198b2de6a4cf80c1b120a3768da0" },
  "plenary.nvim": { "branch": "master", "commit": "2d9b06177a975543726ce5c73fca176cedbffe9d" },
  "rainbow-delimiters.nvim": { "branch": "master", "commit": "5f73b24aeb94f5274c218955573153c69ce4d1ee" },
  "telescope-fzf-native.nvim": { "branch": "main", "commit": "cf48d4dfce44e0b9a2e19a008d6ec6ea6f01a83b" },
  "telescope.nvim": { "branch": "master", "commit": "776b509f80dd49d8205b9b0d94485568236d1192" },
  "undotree": { "branch": "master", "commit": "78b5241191852ffa9bb5da5ff2ee033160798c3b" },
  "which-key.nvim": { "branch": "main", "commit": "fb070344402cfc662299d9914f5546d840a22126" },
  "yazi.nvim": { "branch": "main", "commit": "445f4877d8b80f9d24ea1f9b890c878211878d63" }
}
